{
  "users": [
    {
      "name": "sakib75",
      "username": "sakib75",
      "email": "sakib@gmail.com",
      "phone": "01999887788",
      "id": 1
    },
    {
      "name": "parvez",
      "username": "parvez123",
      "email": "parvez@gmail.com",
      "phone": "00099877655",
      "id": 2
    },
    {
      "name": "hridoy",
      "username": "hridoy123",
      "email": "hridoy@gmail.com",
      "phone": "14345676834",
      "id": 3
    }
  ]
}